Consulta el portal de 'Transparencia Económica' de Perú • perutranspaeconomica
…
Consultar

Una vez definidos los parámetros de la consulta, solo hace falta ejecutarla. Para ello, usamos la función consultar(). Esto nos devolverá la data requerida.

# ¿Cuál fue la ejecución presupuestal por departamento en el gobierno nacional?
# Para el año 2022
iniciar_transparencia_economica() %>% 
    elegir_periodo_anual(2022) %>% 
    elegir_quien_gasta(nivel = "E") %>% 
    elegir_donde_se_gasta(departamento_meta = "todos") %>% 
    consultar()
#> ℹ Iniciando consulta
#> ℹ Unificando consultas...
#> ✔ Consultas realizadas y unificadas
#> # A tibble: 26 × 13
#>    periodo cod_departamento_meta desc_departamento_meta               pia    pim
#>      <dbl> <chr>                 <chr>                              <dbl>  <dbl>
#>  1    2022 01                    AMAZONAS                          1.03e9 1.04e9
#>  2    2022 02                    ANCASH                            3.37e9 3.09e9
#>  3    2022 03                    APURIMAC                          9.13e8 1.06e9
#>  4    2022 04                    AREQUIPA                          2.19e9 2.18e9
#>  5    2022 05                    AYACUCHO                          1.14e9 1.31e9
#>  6    2022 06                    CAJAMARCA                         2.03e9 2.24e9
#>  7    2022 07                    PROVINCIA CONSTITUCIONAL DEL CAL… 2.72e9 3.14e9
#>  8    2022 08                    CUSCO                             3.20e9 3.46e9
#>  9    2022 09                    HUANCAVELICA                      1.06e9 8.98e8
#> 10    2022 10                    HUANUCO                           1.64e9 1.51e9
#> # ℹ 16 more rows
#> # ℹ 8 more variables: certificacion <dbl>, compromiso_anual <dbl>,
#> #   atencion_de_compromiso_mensual <dbl>, devengado <dbl>, girado <dbl>,
#> #   avance_percent <dbl>, nivel <chr>, departamento_meta <chr>
…
Se recomienda asignarle nombre a una consulta ejecutada para evitar posibles tediosas re-descargas, especialmente cuando la consulta usa parámetros con vectores más grandes.

# ¿Cómo se ejecutó el gasto por genérica para el PP 0031 entre el 2015 y 2021?
mi_consulta <- iniciar_transparencia_economica() %>% 
    elegir_periodo_anual(2015:2021) %>% 
    elegir_en_que_se_gasta(categoria_presupuestal = "0031") %>% 
    elegir_como_se_estructura_gasto(generica = "todos") %>% 
    consultar()
#> ℹ Iniciando consulta
#> ⠙ 1/7 ETA:  6s | Ejecutando consulta  ⠹ 2/7 ETA:  6s | Ejecutando consulta  ⠸ 3/7 ETA:  5s | Ejecutando consulta  ⠼ 4/7 ETA:  3s | Ejecutando consulta  ⠴ 5/7 ETA:  2s | Ejecutando consulta  ⠦ 6/7 ETA:  1s | Ejecutando consulta                                         ℹ Unificando consultas...
#> ✔ Consultas realizadas y unificadas

mi_consulta
#> # A tibble: 28 × 13
#>    periodo cod_generica desc_generica                               pia      pim
#>      <int> <chr>        <chr>                                     <dbl>    <dbl>
#>  1    2015 5-21         PERSONAL Y OBLIGACIONES SOCIALES      161861223   1.62e8
#>  2    2015 5-23         BIENES Y SERVICIOS                    104378682   8.25e7
#>  3    2015 5-25         OTROS GASTOS                            7000000   7.93e6
#>  4    2015 6-26         ADQUISICION DE ACTIVOS NO FINANCIEROS  26120000   2.51e7
#>  5    2016 5-21         PERSONAL Y OBLIGACIONES SOCIALES      208112423   2.08e8
#>  6    2016 5-23         BIENES Y SERVICIOS                     79975551   8.47e7
#>  7    2016 5-25         OTROS GASTOS                            7000000   7.45e6
#>  8    2016 6-26         ADQUISICION DE ACTIVOS NO FINANCIEROS         0   2.15e6
#>  9    2017 5-21         PERSONAL Y OBLIGACIONES SOCIALES      209308943   2.09e8
#> 10    2017 5-23         BIENES Y SERVICIOS                     84184599   9.08e7
#> # ℹ 18 more rows
#> # ℹ 8 more variables: certificacion <dbl>, compromiso_anual <dbl>,
#> #   atencion_de_compromiso_mensual <dbl>, devengado <dbl>, girado <dbl>,
#> #   avance_percent <dbl>, categoria_presupuestal <chr>, generica <chr>
…
