Elegir la institucion que utiliza el presupuesto — elegir_institucion • perutranspaeconomica
…
# informacion de todas las UEs del Ministerio de Educacion
iniciar_transparencia_economica(modulo = "gasto") %>%
    elegir_periodo_anual(2022) %>%
    elegir_quien_gasta(
        nivel = "E", 
        sector = "10",
        pliego = "010",
        unidad_ejecutora = "todos"
    ) %>%
    consultar()
#> ℹ Iniciando consulta
#> ℹ Unificando consultas...
#> ✔ Consultas realizadas y unificadas
#> # A tibble: 22 × 15
#>    periodo cod_unidad_ejecutora desc_unidad_ejecutora                 pia    pim
#>      <dbl> <chr>                <chr>                               <dbl>  <dbl>
#>  1    2022 001-56               USE 01 SAN JUAN DE MIRAFLORES      5.17e8 5.65e8
#>  2    2022 002-57               USE 02 SAN MARTIN DE PORRAS        4.44e8 4.82e8
#>  3    2022 003-58               USE 03 CERCADO                     3.98e8 4.58e8
#>  4    2022 004-59               USE 04 COMAS                       4.05e8 4.38e8
#>  5    2022 005-60               USE 05 SAN JUAN DE LURIGANCHO      3.81e8 4.05e8
#>  6    2022 006-61               USE 06 VITARTE                     3.61e8 4.10e8
#>  7    2022 007-62               USE 07 SAN BORJA                   2.93e8 3.22e8
#>  8    2022 017-72               DIRECCION DE EDUCACION DE LIMA     1.02e8 1.12e8
#>  9    2022 021-76               ESCUELA NACIONAL DE BELLAS ARTES   9.84e6 1.17e7
#> 10    2022 022-77               INSTITUTO PEDAGOGICO NACIONAL DE … 9.94e6 1.18e7
#> # ℹ 12 more rows
#> # ℹ 10 more variables: certificacion <dbl>, compromiso_anual <dbl>,
#> #   atencion_de_compromiso_mensual <dbl>, devengado <dbl>, girado <dbl>,
#> #   avance_percent <dbl>, nivel <chr>, sector <chr>, pliego <chr>,
#> #   unidad_ejecutora <chr>
…
