Elegir el origen del presupuesto — elegir_origen • perutranspaeconomica
…
# desglose de tipo de recurso del rubro de "13: Donaciones y transferencias"
# notese la variacion en los codigos de tipo de recurso
iniciar_transparencia_economica(modulo = "gasto") %>%
    elegir_periodo_anual(2022) %>%
    elegir_con_que_se_financia(
        rubro = "13",
        tipo_de_recurso = "todos"
    ) %>%
    consultar()
#> ℹ Iniciando consulta
#> ℹ Unificando consultas...
#> ✔ Consultas realizadas y unificadas
#> # A tibble: 22 × 13
#>    periodo cod_tipo_de_recurso desc_tipo_de_recurso     pia    pim certificacion
#>      <dbl> <chr>               <chr>                  <dbl>  <dbl>         <dbl>
#>  1    2022 A                   TRANSFERENCIAS DE EN… 0      0                  0
#>  2    2022 B                   TRANSFERENCIAS DE EN… 0      0                  0
#>  3    2022 C                   TRANSFERENCIA DE GOB… 0      0                  0
#>  4    2022 E                   TRANSFERENCIAS DE CA… 0      0                  0
#>  5    2022 N                   DONACIONES PARA APOY… 0      0                  0
#>  6    2022 O                   SUBCUENTA- TRANSFERE… 0      0                  0
#>  7    2022 P                   SUBCUENTA- TRANSFERE… 0      0                  0
#>  8    2022 0                   NORMAL                2.30e8 6.07e9    5099003630
#>  9    2022 10                  DONACIONES - AGENCIA… 0      0                  0
#> 10    2022 12                  DONACIONES -VIAJA BN  0      0                  0
#> # ℹ 12 more rows
#> # ℹ 7 more variables: compromiso_anual <dbl>,
#> #   atencion_de_compromiso_mensual <dbl>, devengado <dbl>, girado <dbl>,
#> #   avance_percent <dbl>, rubro <chr>, tipo_de_recurso <chr>
…
