Consulta el sistema de transparencia economica del MEF-Peru • perutranspaeconomica
…
#> 
#> ── Seguimiento a la ejecucion presupuestal (actualizacion diaria) ──────────────
#> 
#> ── Parametros de consulta ──
#> 
#> • Periodo anual:
#>   • 2022
#> • Quien gasta:
#>   • Nivel de gobierno: E
#> • Donde se gasta:
#>   • Departamento (meta): todos
#> 
#> ── Data ──
#> 
#> # A tibble: 26 × 11
#>     year cod_departamento_meta desc_departamento_me…    pia    pim certificacion
#>    <int> <chr>                 <chr>                  <dbl>  <dbl>         <dbl>
#>  1  2022 01                    AMAZONAS              1.03e9 1.07e9     884461176
#>  2  2022 02                    ANCASH                3.37e9 3.26e9    2615743947
#>  3  2022 03                    APURIMAC              9.13e8 1.09e9     942827167
#>  4  2022 04                    AREQUIPA              2.19e9 2.25e9    1909744614
#>  5  2022 05                    AYACUCHO              1.14e9 1.29e9    1134941063
#>  6  2022 06                    CAJAMARCA             2.03e9 2.31e9    1976494630
#>  7  2022 07                    PROVINCIA CONSTITUCI… 2.72e9 3.05e9    2876702415
#>  8  2022 08                    CUSCO                 3.20e9 3.34e9    2902237770
#>  9  2022 09                    HUANCAVELICA          1.06e9 1.01e9     848055170
#> 10  2022 10                    HUANUCO               1.64e9 1.67e9    1443358550
#> # … with 16 more rows, and 5 more variables: compromiso_anual <dbl>,
#> #   atencion_de_compromiso_mensual <dbl>, devengado <dbl>, girado <dbl>,
#> #   avance_percent <dbl>
…
mi_consulta
#> ── Seguimiento a la ejecucion presupuestal (actualizacion diaria) ──────────────
#> 
#> ── Parametros de consulta ──
#> 
#> • Periodo anual:
#>   • 2015, 2016, 2017, 2018, 2019, 2020 y 2021
#> • En que se gasta:
#>   • Categoria presupuestal: 0031
#> • Como se estructura gasto:
#>   • Generica: todos
#> 
#> ── Data ──
#> 
#> # A tibble: 28 × 11
#>     year cod_generica desc_generica    pia    pim certificacion compromiso_anual
#>    <int> <chr>        <chr>          <dbl>  <dbl>         <dbl>            <dbl>
#>  1  2015 5-21         PERSONAL Y O… 1.62e8 1.62e8     161903968        161903968
#>  2  2015 5-23         BIENES Y SER… 1.04e8 8.25e7      78873581         77855263
#>  3  2015 5-25         OTROS GASTOS  7   e6 7.93e6       7929712          7927213
#>  4  2015 6-26         ADQUISICION … 2.61e7 2.51e7      22911882         22856652
#>  5  2016 5-21         PERSONAL Y O… 2.08e8 2.08e8     208113793        208113793
#>  6  2016 5-23         BIENES Y SER… 8.00e7 8.47e7      84200881         82404677
#>  7  2016 5-25         OTROS GASTOS  7   e6 7.45e6       7448352          7214068
#>  8  2016 6-26         ADQUISICION … 0      2.15e6       2146782          1319582
#>  9  2017 5-21         PERSONAL Y O… 2.09e8 2.09e8     209308943        209308943
#> 10  2017 5-23         BIENES Y SER… 8.42e7 9.08e7      88905681         87661656
#> # … with 18 more rows, and 4 more variables:
#> #   atencion_de_compromiso_mensual <dbl>, devengado <dbl>, girado <dbl>,
#> #   avance_percent <dbl>
…
