Elección de parámetros • perutranspaeconomica
…
Con esto podemos ver que existen tres niveles de gobierno. En caso se
escoja profundizar la consulta por Gobierno Nacional o Gobiernos
Regionales se estaría tomando el camino de Sector. En este caso,
escogemos Gobierno Nacional para ver el presupuesto por sector. Para
ello, usamos el código del nivel de gobierno escogido. Nótese que para
mayor comodidad en el procesamiento de los datos, se incluyen columnas
extras con la metadata de la consulta.

iniciar_transparencia_economica() %>% 
    elegir_periodo_anual(2022) %>% 
    elegir_quien_gasta(nivel = "E", sector = "todos") %>% 
    consultar()
#> # A tibble: 30 × 13
#>    periodo cod_sector desc_sector                           pia         pim
#>      <dbl> <chr>      <chr>                               <dbl>       <dbl>
#>  1    2022 01         PRESIDENCIA CONSEJO MINISTROS  7755356930  5868630182
#>  2    2022 03         CULTURA                         606374213   615384354
#>  3    2022 04         PODER JUDICIAL                 3185867103  3169460209
#>  4    2022 05         AMBIENTAL                       794397975   751245011
#>  5    2022 06         JUSTICIA                       1854961785  2126341231
#>  6    2022 07         INTERIOR                      10880820467 13924845983
#>  7    2022 08         RELACIONES EXTERIORES           848424011   987788424
#>  8    2022 09         ECONOMIA Y FINANZAS           42688806017 34974113894
#>  9    2022 10         EDUCACION                     17250060955 13222235791
#> 10    2022 11         SALUD                         11527638911 13076347305
#> # ℹ 20 more rows
#> # ℹ 8 more variables: certificacion <dbl>, compromiso_anual <dbl>,
#> #   atencion_de_compromiso_mensual <dbl>, devengado <dbl>, girado <dbl>,
#> #   avance_percent <dbl>, nivel <chr>, sector <chr>
…
Con esto, ahora podemos ver que el sector salud está conformado por
cinco pliegos. Puede que ahora querramos ver los datos de las unidades
ejecutoras del Ministerio de salud. Nuevamente, especificamos esto en la
consulta.

iniciar_transparencia_economica() %>% 
    elegir_periodo_anual(2022) %>% 
    elegir_quien_gasta(nivel = "E", sector = "11", pliego = "011", unidad_ejecutora = "todos") %>% 
    consultar()
#> # A tibble: 34 × 15
#>    periodo cod_unidad_ejecutora desc_unidad_ejecutora                 pia    pim
#>      <dbl> <chr>                <chr>                               <dbl>  <dbl>
#>  1    2022 001-117              ADMINISTRACION CENTRAL - MINSA     2.97e9 1.75e9
#>  2    2022 005-121              INSTITUTO NACIONAL DE SALUD MENTAL 4.01e7 6.37e7
#>  3    2022 007-123              INSTITUTO NACIONAL DE CIENCIAS NE… 4.91e7 7.44e7
#>  4    2022 008-124              INSTITUTO NACIONAL DE OFTALMOLOGIA 4.07e7 6.18e7
#>  5    2022 009-125              INSTITUTO NACIONAL DE REHABILITAC… 3.89e7 5.35e7
#>  6    2022 010-126              INSTITUTO NACIONAL DE SALUD DEL N… 1.85e8 2.69e8
#>  7    2022 011-127              INSTITUTO NACIONAL MATERNO PERINA… 1.20e8 1.87e8
#>  8    2022 016-132              HOSPITAL NACIONAL HIPOLITO UNANUE  1.50e8 2.63e8
#>  9    2022 017-133              HOSPITAL HERMILIO VALDIZAN         4.02e7 5.65e7
#> 10    2022 020-136              HOSPITAL SERGIO BERNALES           8.49e7 1.29e8
#> # ℹ 24 more rows
#> # ℹ 10 more variables: certificacion <dbl>, compromiso_anual <dbl>,
#> #   atencion_de_compromiso_mensual <dbl>, devengado <dbl>, girado <dbl>,
#> #   avance_percent <dbl>, nivel <chr>, sector <chr>, pliego <chr>,
#> #   unidad_ejecutora <chr>
…
A continuación un ejemplo para ilustrar la explicación. Empezamos
viendo las categorías presupuestales. Recordemos que estas se nombran (o
al menos se deberían nombrar) como una acción respecto a un problema a
resolver. En este caso hacemos la búsqueda para el 2021.

iniciar_transparencia_economica() %>% 
    elegir_periodo_anual(2021) %>% 
    elegir_en_que_se_gasta(categoria_presupuestal = "todos") %>%
    consultar()
#> # A tibble: 92 × 12
#>    periodo cod_categoria_presupue…¹ desc_categoria_presupuestal       pia    pim
#>      <dbl> <chr>                    <chr>                           <dbl>  <dbl>
#>  1    2021 0001                     PROGRAMA ARTICULADO NUTRICION… 2.39e9 2.90e9
#>  2    2021 0002                     SALUD MATERNO NEONATAL         1.92e9 2.33e9
#>  3    2021 0016                     TBC-VIH/SIDA                   7.13e8 6.92e8
#>  4    2021 0017                     ENFERMEDADES METAXENICAS Y ZO… 3.61e8 4.09e8
#>  5    2021 0018                     ENFERMEDADES NO TRANSMISIBLES  6.04e8 7.23e8
#>  6    2021 0024                     PREVENCION Y CONTROL DEL CANC… 5.26e8 7.91e8
#>  7    2021 0030                     REDUCCION DE DELITOS Y FALTAS… 4.54e9 5.05e9
#>  8    2021 0031                     REDUCCION DEL TRAFICO ILICITO… 2.63e8 2.76e8
#>  9    2021 0032                     LUCHA CONTRA EL TERRORISMO     3.03e8 3.09e8
#> 10    2021 0036                     GESTION INTEGRAL DE RESIDUOS … 1.49e9 2.39e9
#> # ℹ 82 more rows
#> # ℹ abbreviated name: ¹​cod_categoria_presupuestal
#> # ℹ 7 more variables: certificacion <dbl>, compromiso_anual <dbl>,
#> #   atencion_de_compromiso_mensual <dbl>, devengado <dbl>, girado <dbl>,
#> #   avance_percent <dbl>, categoria_presupuestal <chr>
…
Es posible consultar el mismo tema a través de la clasificación
funcional. Empecemos viendo todas las funciones del 2021.

iniciar_transparencia_economica() %>% 
    elegir_periodo_anual(2021) %>% 
    elegir_en_que_se_gasta(funcion = "todos") %>% 
    consultar()
#> # A tibble: 25 × 12
#>    periodo cod_funcion desc_funcion                                  pia     pim
#>      <dbl> <chr>       <chr>                                       <dbl>   <dbl>
#>  1    2021 01          LEGISLATIVA                               6.15e 8 6.11e 8
#>  2    2021 02          RELACIONES EXTERIORES                     7.60e 8 9.95e 8
#>  3    2021 03          PLANEAMIENTO, GESTION Y RESERVA DE CONTI… 2.41e10 2.23e10
#>  4    2021 04          DEFENSA Y SEGURIDAD NACIONAL              4.98e 9 5.57e 9
#>  5    2021 05          ORDEN PUBLICO Y SEGURIDAD                 1.06e10 1.26e10
#>  6    2021 06          JUSTICIA                                  6.93e 9 6.96e 9
#>  7    2021 07          TRABAJO                                   5.16e 8 3.63e 9
#>  8    2021 08          COMERCIO                                  5.23e 8 7.16e 8
#>  9    2021 09          TURISMO                                   4.38e 8 6.49e 8
#> 10    2021 10          AGROPECUARIA                              8.75e 9 7.11e 9
#> # ℹ 15 more rows
#> # ℹ 7 more variables: certificacion <dbl>, compromiso_anual <dbl>,
#> #   atencion_de_compromiso_mensual <dbl>, devengado <dbl>, girado <dbl>,
#> #   avance_percent <dbl>, funcion <chr>
…
Se puede ver que el rubro de “Canon y Sobrecanon, regalías, renta de
aduanas y participaciones” financió 17116846439 soles del presupuesto de
2021. Para mayor detalle se puede consultar el tipo de recurso.

iniciar_transparencia_economica() %>% 
    elegir_periodo_anual(2021) %>% 
    elegir_con_que_se_financia(
        fuente_financiamiento = "5",
        rubro = "18",
        tipo_de_recurso = "todos"
    ) %>% 
    consultar()
#> # A tibble: 49 × 14
#>    periodo cod_tipo_de_recurso desc_tipo_de_recurso                    pia   pim
#>      <dbl> <chr>               <chr>                                 <dbl> <dbl>
#>  1    2021 A                   REGALIAS MINERAS                          0     0
#>  2    2021 B                   RENTAS DE ADUANA                          0     0
#>  3    2021 C                   PARTICIPACIONES - DNTP                    0     0
#>  4    2021 D                   SUB CUENTA - PARTICIPACIONES - DNTP       0     0
#>  5    2021 E                   SUBCUENTA - PARTICIPACIONES - FONIPR…     0     0
#>  6    2021 F                   FFAA Y POLICIA NACIONAL                   0     0
#>  7    2021 G                   FOCAM                                     0     0
#>  8    2021 H                   SUB CUENTA - CANON MINERO                 0     0
#>  9    2021 I                   SUB CUENTA - CANON HIDROENERGETICO        0     0
#> 10    2021 J                   SUB CUENTA - CANON PESQUERO               0     0
#> # ℹ 39 more rows
#> # ℹ 9 more variables: certificacion <dbl>, compromiso_anual <dbl>,
#> #   atencion_de_compromiso_mensual <dbl>, devengado <dbl>, girado <dbl>,
#> #   avance_percent <dbl>, fuente_financiamiento <chr>, rubro <chr>,
#> #   tipo_de_recurso <chr>
…
La función elegir_donde_se_gasta() permite obtener una
división del gasto por departamento.

Con esto, podemos ver rápidamente cuánto presupuesto tuvo cada
departamento el 2021. Nótese la diferencia entre el argumento
departamento_meta de esta función y el argumento
departamento de la función
elegir_quien_gasta().

iniciar_transparencia_economica() %>% 
    elegir_periodo_anual(2021) %>% 
    elegir_donde_se_gasta(departamento_meta = "todos") %>% 
    consultar()
#> # A tibble: 26 × 12
#>    periodo cod_departamento_meta desc_departamento_meta              pia     pim
#>      <dbl> <chr>                 <chr>                             <dbl>   <dbl>
#>  1    2021 01                    AMAZONAS                         2.31e9 3.09e 9
#>  2    2021 02                    ANCASH                           5.06e9 9.41e 9
#>  3    2021 03                    APURIMAC                         2.62e9 3.74e 9
#>  4    2021 04                    AREQUIPA                         5.16e9 8.45e 9
#>  5    2021 05                    AYACUCHO                         3.17e9 5.13e 9
#>  6    2021 06                    CAJAMARCA                        5.44e9 8.30e 9
#>  7    2021 07                    PROVINCIA CONSTITUCIONAL DEL CA… 4.40e9 5.65e 9
#>  8    2021 08                    CUSCO                            7.52e9 1.05e10
#>  9    2021 09                    HUANCAVELICA                     2.18e9 3.50e 9
#> 10    2021 10                    HUANUCO                          3.10e9 4.53e 9
#> # ℹ 16 more rows
#> # ℹ 7 more variables: certificacion <dbl>, compromiso_anual <dbl>,
#> #   atencion_de_compromiso_mensual <dbl>, devengado <dbl>, girado <dbl>,
#> #   avance_percent <dbl>, departamento_meta <chr>
…
